PARTE A/simulation/qsim/ej_a.msim.vcd
$comment
	File created using the following command:
		vcd file ej_a.msim.vcd -direction
$end
$date
	Mon Oct 21 16:32:21 2024
$end
$version
	ModelSim Version 10.1d
$end
$timescale
	1ps
$end
$scope module ej_a_vlg_vec_tst $end
$var reg 1 ! SW1 $end
$var reg 1 " SW2 $end
$var reg 1 # SW3 $end
$var wire 1 $ LED $end
$var wire 1 % sampler $end
$scope module i1 $end
$var wire 1 & gnd $end
$var wire 1 ' vcc $end
$var wire 1 ( unknown $end
$var tri1 1 ) devclrn $end
$var tri1 1 * devpor $end
$var tri1 1 + devoe $end
$var wire 1 , LED~output_o $end
$var wire 1 - SW2~input_o $end
$var wire 1 . SW3~input_o $end
$var wire 1 / SW1~input_o $end
$var wire 1 0 LED~0_combout $end
$upscope $end
$upscope $end
$enddefinitions $end
#0
$dumpvars
1!
0"
1#
x$
x%
0&
1'
x(
1)
1*
1+
x,
0-
1.
1/
x0
$end
#3479
10
#6071
1,
1$
#50000
1"
0%
#50779
1-
#53993
00
#56568
0,
0$
#100000
0"
1%
#100884
0-
#104363
10
#106955
1,
1$
#150000
1"
0%
#150779
1-
#153993
00
#156568
0,
0$
#200000
0"
1%
#200884
0-
#204363
10
#206955
1,
1$
#250000
1"
0%
#250779
1-
#253993
00
#256568
0,
0$
#300000
0"
1%
#300884
0-
#304363
10
#306955
1,
1$
#350000
1"
0%
#350779
1-
#353993
00
#356568
0,
0$
#400000
0"
1%
#400884
0-
#404363
10
#406955
1,
1$
#450000
1"
0%
#450779
1-
#453993
00
#456568
0,
0$
#500000
0"
1%
#500884
0-
#504363
10
#506955
1,
1$
#550000
1"
0%
#550779
1-
#553993
00
#556568
0,
0$
#600000
0"
1%
#600884
0-
#604363
10
#606955
1,
1$
#650000
1"
0%
#650779
1-
#653993
00
#656568
0,
0$
#700000
0"
1%
#700884
0-
#704363
10
#706955
1,
1$
#750000
1"
0%
#750779
1-
#753993
00
#756568
0,
0$
#800000
0"
1%
#800884
0-
#804363
10
#806955
1,
1$
#850000
1"
0%
#850779
1-
#853993
00
#856568
0,
0$
#900000
0"
1%
#900884
0-
#904363
10
#906955
1,
1$
#950000
1"
0%
#950779
1-
#953993
00
#956568
0,
0$
